{
	"$baseURI": "https://yal.cc/r/20/pixelfont/",
	"$version": "1.0",
	"in-glyphs": [
		" !\"#$%&'()*+,-./",
		"0123456789:;<=>?",
		"@ABCDEFGHIJKLMNO",
		"PQRSTUVWXYZ[\\]^_",
		"`abcdefghijklmno",
		"pqrstuvwxyz{|}~∎"
	],
	"glyph-color": "auto",
	"in-kerning": [
		""
	],
	"glyph-width": 6,
	"glyph-height": 6,
	"glyph-ofs-x": 0,
	"glyph-ofs-y": 0,
	"glyph-sep-x": 0,
	"glyph-sep-y": 0,
	"glyph-base-x": 0,
	"glyph-baseline": 6,
	"glyph-spacing": -1,
	"font-is-mono": true,
	"font-em-square": 600,
	"font-line-gap": 0,
	"font-ascend": 600,
	"font-descend": 0,
	"font-px-size": 100,
	"contour-type": "pixel",
	"font-type": "ttf",
	"font-name": "Styxel",
	"font-author": "Letheward",
	"font-copy": "(c) Letheward",
	"font-version": "Version 1.0",
	"font-desc": "",
	"font-license": "",
	"font-license-url": "",
	"font-sample-text": "",
	"font-preview-text": [
		"THE QUICK BROWN FOX JUMPS OVER A LAZY DOG.",
		"the quick brown fox jumps over a lazy dog.",
		"0123456789"
	]
}